{
  "project_info": {
    "project_number": "917825018768",
    "firebase_url": "https://indihomesmart-b2be6.firebaseio.com",
    "project_id": "indihomesmart-b2be6",
    "storage_bucket": "indihomesmart-b2be6.appspot.com"
  },
  "client": [
    {
      "client_info": {
        "mobilesdk_app_id": "1:917825018768:android:a1b6efe2b42bdf38bdf115",
        "android_client_info": {
          "package_name": "com.telkom.eazy"
        }
      },
      "oauth_client": [
        {
          "client_id": "917825018768-cits4ppn4ftca6k6tebg3kaj0etbfdi8.apps.googleusercontent.com",
          "client_type": 1,
          "android_info": {
            "package_name": "com.telkom.eazy",
            "certificate_hash": "3d7ec3e454dc87c03c20f9e82d45ecfd4bbd4998"
          }
        },
        {
          "client_id": "917825018768-ddejek803u7j7g300vmgs8hjsrs389ov.apps.googleusercontent.com",
          "client_type": 1,
          "android_info": {
            "package_name": "com.telkom.eazy",
            "certificate_hash": "377687237dd6c27330cfa850c828a7f0839d95f8"
          }
        },
        {
          "client_id": "917825018768-f75n65t1mdoset241c5i60eluuat3mt7.apps.googleusercontent.com",
          "client_type": 3
        }
      ],
      "api_key": [
        {
          "current_key": "AIzaSyCR-YDRPvmj9_4eKhrnCFo7Lczi0LEV1Ns"
        },
        {
          "current_key": "AIzaSyBu6AJd-LVaxsxo6wOcbwpNguoFfFpf5Wo"
        }
      ],
      "services": {
        "appinvite_service": {
          "other_platform_oauth_client": [
            {
              "client_id": "917825018768-c9gi3ia2u7t7gfnu49skvmkrmh21d4h9.apps.googleusercontent.com",
              "client_type": 3
            },
            {
              "client_id": "917825018768-1hcqgnroklufj6d7916a6b5fhdbs3qj5.apps.googleusercontent.com",
              "client_type": 2,
              "ios_info": {
                "bundle_id": "com.indihome.smart",
                "app_store_id": "1000000000"
              }
            }
          ]
        }
      }
    },
    {
      "client_info": {
        "mobilesdk_app_id": "1:917825018768:android:9e64199b0fbcd42fbdf115",
        "android_client_info": {
          "package_name": "com.telkom.eazyhub"
        }
      },
      "oauth_client": [
        {
          "client_id": "917825018768-gd9vkt5gb5vf369dafdpphm99q9jf8i3.apps.googleusercontent.com",
          "client_type": 1,
          "android_info": {
            "package_name": "com.telkom.eazyhub",
            "certificate_hash": "92a013a8477c3e37cf53bc3c6eb402d9bfe90374"
          }
        },
        {
          "client_id": "917825018768-vh4oigb2i0gudsihsnjcpbc5sgr4vebl.apps.googleusercontent.com",
          "client_type": 1,
          "android_info": {
            "package_name": "com.telkom.eazyhub",
            "certificate_hash": "bd15597dbbf39634a79f58df8aea8661756e2b48"
          }
        },
        {
          "client_id": "917825018768-f75n65t1mdoset241c5i60eluuat3mt7.apps.googleusercontent.com",
          "client_type": 3
        }
      ],
      "api_key": [
        {
          "current_key": "AIzaSyCR-YDRPvmj9_4eKhrnCFo7Lczi0LEV1Ns"
        },
        {
          "current_key": "AIzaSyBu6AJd-LVaxsxo6wOcbwpNguoFfFpf5Wo"
        }
      ],
      "services": {
        "appinvite_service": {
          "other_platform_oauth_client": [
            {
              "client_id": "917825018768-c9gi3ia2u7t7gfnu49skvmkrmh21d4h9.apps.googleusercontent.com",
              "client_type": 3
            },
            {
              "client_id": "917825018768-1hcqgnroklufj6d7916a6b5fhdbs3qj5.apps.googleusercontent.com",
              "client_type": 2,
              "ios_info": {
                "bundle_id": "com.indihome.smart",
                "app_store_id": "1000000000"
              }
            }
          ]
        }
      }
    },
    {
      "client_info": {
        "mobilesdk_app_id": "1:917825018768:android:8bfeb70ba8e21c63bdf115",
        "android_client_info": {
          "package_name": "com.telkom.indihome.eazy"
        }
      },
      "oauth_client": [
        {
          "client_id": "917825018768-c9t6b6cu7v6dlrjkr60cf0tksjfphker.apps.googleusercontent.com",
          "client_type": 1,
          "android_info": {
            "package_name": "com.telkom.indihome.eazy",
            "certificate_hash": "377687237dd6c27330cfa850c828a7f0839d95f8"
          }
        },
        {
          "client_id": "917825018768-f75n65t1mdoset241c5i60eluuat3mt7.apps.googleusercontent.com",
          "client_type": 3
        }
      ],
      "api_key": [
        {
          "current_key": "AIzaSyCR-YDRPvmj9_4eKhrnCFo7Lczi0LEV1Ns"
        },
        {
          "current_key": "AIzaSyBu6AJd-LVaxsxo6wOcbwpNguoFfFpf5Wo"
        }
      ],
      "services": {
        "appinvite_service": {
          "other_platform_oauth_client": [
            {
              "client_id": "917825018768-c9gi3ia2u7t7gfnu49skvmkrmh21d4h9.apps.googleusercontent.com",
              "client_type": 3
            },
            {
              "client_id": "917825018768-1hcqgnroklufj6d7916a6b5fhdbs3qj5.apps.googleusercontent.com",
              "client_type": 2,
              "ios_info": {
                "bundle_id": "com.indihome.smart",
                "app_store_id": "1000000000"
              }
            }
          ]
        }
      }
    },
    {
      "client_info": {
        "mobilesdk_app_id": "1:917825018768:android:9a6d9434b624f446bdf115",
        "android_client_info": {
          "package_name": "com.telkom.indihome.smart"
        }
      },
      "oauth_client": [
        {
          "client_id": "917825018768-4rupg1j0f93opa5epgi27acdmdi17o2p.apps.googleusercontent.com",
          "client_type": 1,
          "android_info": {
            "package_name": "com.telkom.indihome.smart",
            "certificate_hash": "7b1188dedcb3acc06fa1ba8e4e55f2625247bfe3"
          }
        },
        {
          "client_id": "917825018768-kb2g2usfgo4orr2ugsafh0l56q5v6bi4.apps.googleusercontent.com",
          "client_type": 1,
          "android_info": {
            "package_name": "com.telkom.indihome.smart",
            "certificate_hash": "95c33f490f1b75db5f8db6dc3581b68089d3f415"
          }
        },
        {
          "client_id": "917825018768-m7v78pn7447sb7p8ngjv0ggvfv077frg.apps.googleusercontent.com",
          "client_type": 1,
          "android_info": {
            "package_name": "com.telkom.indihome.smart",
            "certificate_hash": "377687237dd6c27330cfa850c828a7f0839d95f8"
          }
        },
        {
          "client_id": "917825018768-pkv3mv26cb8v0bgto2cgmcmv4lstnafr.apps.googleusercontent.com",
          "client_type": 1,
          "android_info": {
            "package_name": "com.telkom.indihome.smart",
            "certificate_hash": "034dd10fc638143d2e1594e4bc056822adfce9a8"
          }
        },
        {
          "client_id": "917825018768-squmdul7l9ohgltct8e4cv7nckj2e39q.apps.googleusercontent.com",
          "client_type": 1,
          "android_info": {
            "package_name": "com.telkom.indihome.smart",
            "certificate_hash": "6d89b4a216c2c3af62a5a725bd4722c9f9ad610a"
          }
        },
        {
          "client_id": "917825018768-u4u18v1i57eur7ke77f2s8ltlrcur9ei.apps.googleusercontent.com",
          "client_type": 1,
          "android_info": {
            "package_name": "com.telkom.indihome.smart",
            "certificate_hash": "77396c690ee3c4524b6fcd44eca3f8fc833f3163"
          }
        },
        {
          "client_id": "917825018768-vgj6edads8jl021pnb78s2rts1quhl14.apps.googleusercontent.com",
          "client_type": 1,
          "android_info": {
            "package_name": "com.telkom.indihome.smart",
            "certificate_hash": "a9155bbd80d6a553038154b4f023de031490fc37"
          }
        },
        {
          "client_id": "917825018768-f75n65t1mdoset241c5i60eluuat3mt7.apps.googleusercontent.com",
          "client_type": 3
        }
      ],
      "api_key": [
        {
          "current_key": "AIzaSyCR-YDRPvmj9_4eKhrnCFo7Lczi0LEV1Ns"
        },
        {
          "current_key": "AIzaSyBu6AJd-LVaxsxo6wOcbwpNguoFfFpf5Wo"
        }
      ],
      "services": {
        "appinvite_service": {
          "other_platform_oauth_client": [
            {
              "client_id": "917825018768-c9gi3ia2u7t7gfnu49skvmkrmh21d4h9.apps.googleusercontent.com",
              "client_type": 3
            },
            {
              "client_id": "917825018768-1hcqgnroklufj6d7916a6b5fhdbs3qj5.apps.googleusercontent.com",
              "client_type": 2,
              "ios_info": {
                "bundle_id": "com.indihome.smart",
                "app_store_id": "1000000000"
              }
            }
          ]
        }
      }
    },
    {
      "client_info": {
        "mobilesdk_app_id": "1:917825018768:android:e0c800bec5a63339bdf115",
        "android_client_info": {
          "package_name": "com.telkom.indihome.smart.tv"
        }
      },
      "oauth_client": [
        {
          "client_id": "917825018768-a7e9rqtn71avjniddf5q8ose0q04dmmf.apps.googleusercontent.com",
          "client_type": 1,
          "android_info": {
            "package_name": "com.telkom.indihome.smart.tv",
            "certificate_hash": "634529558f3c7d0cc24752f7cb307fd05b74ab72"
          }
        },
        {
          "client_id": "917825018768-g4ukmbvitj5p14juro7k8oj157dbuj5g.apps.googleusercontent.com",
          "client_type": 1,
          "android_info": {
            "package_name": "com.telkom.indihome.smart.tv",
            "certificate_hash": "034dd10fc638143d2e1594e4bc056822adfce9a8"
          }
        },
        {
          "client_id": "917825018768-inqfuo2cgi4pbttg6svcjn0ahiihs2ns.apps.googleusercontent.com",
          "client_type": 1,
          "android_info": {
            "package_name": "com.telkom.indihome.smart.tv",
            "certificate_hash": "6d89b4a216c2c3af62a5a725bd4722c9f9ad610a"
          }
        },
        {
          "client_id": "917825018768-f75n65t1mdoset241c5i60eluuat3mt7.apps.googleusercontent.com",
          "client_type": 3
        }
      ],
      "api_key": [
        {
          "current_key": "AIzaSyCR-YDRPvmj9_4eKhrnCFo7Lczi0LEV1Ns"
        },
        {
          "current_key": "AIzaSyBu6AJd-LVaxsxo6wOcbwpNguoFfFpf5Wo"
        }
      ],
      "services": {
        "appinvite_service": {
          "other_platform_oauth_client": [
            {
              "client_id": "917825018768-c9gi3ia2u7t7gfnu49skvmkrmh21d4h9.apps.googleusercontent.com",
              "client_type": 3
            },
            {
              "client_id": "917825018768-1hcqgnroklufj6d7916a6b5fhdbs3qj5.apps.googleusercontent.com",
              "client_type": 2,
              "ios_info": {
                "bundle_id": "com.indihome.smart",
                "app_store_id": "1000000000"
              }
            }
          ]
        }
      }
    }
  ],
  "configuration_version": "1"
}